…
Finally (and most usefully!), you can download the resource (i.e., the
actual data) directly into R using `get_resource()`:

``` r
to_points_layers <- to_app_layers[to_app_layers$name == "toronto_points_layers 20230719-202357.rds",] %>%
  get_resource()

to_points_layers
#> Simple feature collection with 30308 features and 11 fields
#> Geometry type: POINT
#> Dimension:     XY
#> Bounding box:  xmin: -123.8915 ymin: -26.21459 xmax: 1.371135 ymax: 53.60252
#> Geodetic CRS:  WGS 84
#> # A tibble: 30,308 × 12
#>    Address  Apartment Building P…¹ Apartment Has Air Co…² Apartment Barrier Fr…³
#>  * <chr>    <chr>                  <lgl>                                   <dbl>
#>  1 1 26th … <NA>                   NA                                         NA
#>  2 1 35th … <NA>                   NA                                         NA
#>  3 1 41st … <NA>                   NA                                         NA
#>  4 1 6th S… <NA>                   NA                                         NA
#>  5 1 Abbot… <NA>                   NA                                         NA
#>  6 1 Aberf… <NA>                   NA                                         NA
#>  7 1 Aberf… <NA>                   NA                                         NA
#>  8 1 Acorn… <NA>                   NA                                         NA
#>  9 1 Adra … <NA>                   NA                                         NA
#> 10 1 Adra … <NA>                   NA                                         NA
#> # ℹ 30,298 more rows
#> # ℹ abbreviated names: ¹​`Apartment Building Property Type`,
#> #   ²​`Apartment Has Air Conditioning`,
#> #   ³​`Apartment Barrier Free Accessible Units`
#> # ℹ 8 more variables: `Apartment Building Units` <dbl>,
#> #   `Apartment Year Built` <dbl>, `RentSafeTO Score` <dbl>,
#> #   `Evicting Organization` <chr>, Latitude <chr>, Longitude <chr>, …
```
